<?xml version="1.0" encoding="UTF-8"?>
<svg width="9px" height="17px" viewBox="0 0 9 17" version="1.1" xmlns="http://www.w3.org/2000/svg" xmlns:xlink="http://www.w3.org/1999/xlink">
    <!-- Generator: Sketch 43.2 (39069) - http://www.bohemiancoding.com/sketch -->
    <title>icon-arrow-next</title>
    <desc>Created with Sketch.</desc>
    <defs></defs>
    <g id="Page-1" stroke="none" stroke-width="1" fill="none" fill-rule="evenodd">
        <polygon id="icon-arrow-next" fill="#827D7D" transform="translate(4.242640, 8.485300) scale(-1, 1) translate(-4.242640, -8.485300) " points="0 8.4896 8.481 16.9706 8.484 16.9706 8.484 0.0056"></polygon>
    </g>
</svg>