<?xml version="1.0" encoding="UTF-8"?>
<svg width="17px" height="16px" viewBox="0 0 17 16" version="1.1" xmlns="http://www.w3.org/2000/svg" xmlns:xlink="http://www.w3.org/1999/xlink">
    <!-- Generator: Sketch 43.2 (39069) - http://www.bohemiancoding.com/sketch -->
    <title>icon-tag-white</title>
    <desc>Created with Sketch.</desc>
    <defs></defs>
    <g id="Page-1" stroke="none" stroke-width="1" fill="none" fill-rule="evenodd">
        <g id="icon-tag-white" transform="translate(1.000000, 0.000000)" stroke="#FFFFFF">
            <polygon id="Stroke-1" stroke-linejoin="round" points="15.4658 0.5003 9.0208 1.3593 0.4998 9.8103 6.1568 15.4673 14.6428 6.9813"></polygon>
            <path d="M11.46,4.5062 C11.851,4.8972 12.484,4.8982 12.875,4.5072 C13.266,4.1162 13.265,3.4832 12.874,3.0922 C12.484,2.7022 11.851,2.7012 11.46,3.0922 C11.069,3.4832 11.07,4.1162 11.46,4.5062 Z" id="Stroke-3"></path>
        </g>
    </g>
</svg>